…
### Selecting just one train that day to look at


```r
one_train_day <- one_day %>%
  filter(trainid == "102")

print(one_train_day, n = 20)
```

```
## # A tibble: 2,630 x 13
##             id station_char subwayline    timint traindirection trainid
##          <dbl>        <chr>      <chr>     <dbl>          <chr>   <int>
##  1 13453869257         WIL1        YUS 0.5350376          North     102
##  2 13453868292         YKD1        YUS 2.6540987          North     102
##  3 13453884912         YKD1        YUS 1.8640612          North     102
##  4 13453884916         LWW1        YUS 3.9861106          North     102
##  5 13453900553         YKD1        YUS 0.6275294          North     102
##  6 13453900558         LWW1        YUS 2.7495788          North     102
##  7 13453900561         GCN1        YUS 4.1729788          North     102
##  8 13453917035         YKD1        YUS 0.0000000          North     102
##  9 13453917039         LWW1        YUS 2.1220494          North     102
## 10 13453917043         GCN1        YUS 3.5454494          North     102
## 11 13453932834         LWW1        YUS 1.7152471          North     102
## 12 13453932837         GCN1        YUS 3.1386471          North     102
## 13 13453932841         EGW1        YUS 5.0509224          North     102
## 14 13453949287         LWW1        YUS 0.3287059          North     102
## 15 13453949291         GCN1        YUS 1.7521059          North     102
## 16 13453949295         EGW1        YUS 3.6643812          North     102
## 17 13453965304         LWW1        YUS 0.0000000          North     102
## 18 13453965307         GCN1        YUS 1.4234000          North     102
## 19 13453965311         EGW1        YUS 3.3356753          North     102
## 20 13453980907         GCN1        YUS 0.2587812          North     102
## # ... with 2,610 more rows, and 7 more variables: train_message <chr>,
## #   stationid <int>, create_date <dttm>, request_date <dttm>,
## #   poll_start <dttm>, poll_end <dttm>, workday <fctr>
```
…
station_transits
```

```
## # A tibble: 379 x 20
##             id station_char subwayline    timint traindirection trainid
##          <dbl>        <chr>      <chr>     <dbl>          <chr>   <int>
##  1 13453869257         WIL1        YUS 0.5350376          North     102
##  2 13453900553         YKD1        YUS 0.6275294          North     102
##  3 13453917035         YKD1        YUS 0.0000000          North     102
##  4 13453949287         LWW1        YUS 0.3287059          North     102
##  5 13453965304         LWW1        YUS 0.0000000          North     102
##  6 13453980907         GCN1        YUS 0.2587812          North     102
##  7 13454013508         EGW1        YUS 0.0000000          North     102
##  8 13454077546         SCW1        YUS 0.9236635          North     102
##  9 13454094658         SCW1        YUS 0.1234141          North     102
## 10 13454143087         DUP1        YUS 0.0000000          North     102
## # ... with 369 more rows, and 14 more variables: train_message <chr>,
## #   stationid <int>, create_date <dttm>, request_date <dttm>,
## #   poll_start <dttm>, poll_end <dttm>, workday <fctr>,
## #   arrive_time <dttm>, stationid_last <int>, station_change <lgl>,
## #   station_change_num <int>, station_dir <int>, service_break <lgl>,
## #   daily_trip <int>
```
…
print(clean_transits, n = 30)
```

```
## # A tibble: 243 x 9
##    subwayline trainid daily_trip  trip origin_stationid stationid
##         <chr>   <int>      <int> <int>            <int>     <int>
##  1        YUS     102          0     2                2         3
##  2        YUS     102          0     2                3         4
##  3        YUS     102          0     2                4         5
##  4        YUS     102          0     2                5         6
##  5        YUS     102          0     2                6         7
##  6        YUS     102          0     2                7         8
##  7        YUS     102          0     2                8         9
##  8        YUS     102          0     2                9        10
##  9        YUS     102          0     2               10        11
## 10        YUS     102          0     2               11        12
## 11        YUS     102          0     2               12        13
## 12        YUS     102          0     2               13        14
## 13        YUS     102          0     2               14        15
## 14        YUS     102          0     2               15        16
## 15        YUS     102          0     2               16        17
## 16        YUS     102          0     2               17        18
## 17        YUS     102          0     2               18        19
## 18        YUS     102          0     2               19        20
## 19        YUS     102          0     2               20        21
## 20        YUS     102          0     2               21        22
## 21        YUS     102          0     2               22        23
## 22        YUS     102          0     2               23        24
## 23        YUS     102          0     2               24        25
## 24        YUS     102          0     2               25        26
## 25        YUS     102          0     2               26        27
## 26        YUS     102          0     2               27        28
## 27        YUS     102          0     2               28        29
## 28        YUS     102          0     2               29        30
## 29        YUS     102          0     2               30        31
## 30        YUS     102          0     2               31        32
## # ... with 213 more rows, and 3 more variables: depart_time <dttm>,
## #   arrive_time <dttm>, duration <time>
```
…
```
## [1] 402
```

```r
one_day_trip %>%
  filter(abs(origin_stationid - stationid) > 1) %>%
  group_by(origin_stationid, stationid) %>%
  count() %>%
  arrange(desc(n))
```

```
## # A tibble: 114 x 3
## # Groups:   origin_stationid, stationid [114]
##    origin_stationid stationid     n
##               <int>     <int> <int>
##  1               13        15   159
##  2                4         6    17
##  3               27        29    12
##  4               65        67    10
##  5               20        18     9
##  6               64        66     8
##  7               17        19     6
##  8               15        13     5
##  9               50        48     5
## 10               66        68     5
## # ... with 104 more rows
```

```r
filter(one_day_trip, abs(origin_stationid - stationid) > 1) %>%
  group_by(trainid) %>%
  count() %>%
  arrange(desc(n)) %>%
  print(n = 10) %$%
  hist(.$n, main = "Not sure what to make of this distribution", xlab = "Missing stations per train", breaks = 15)
```

```
## # A tibble: 104 x 2
## # Groups:   trainid [104]
##    trainid     n
##      <int> <int>
##  1     128    13
##  2     464    13
##  3     462    11
##  4     111    10
##  5     123    10
##  6     157    10
##  7     101     9
##  8     103     9
##  9     117     9
## 10     121     9
## # ... with 94 more rows
```
…
```r
filter(one_day_trip, abs(origin_stationid - stationid) > 1) %>%
  group_by(cut(depart_time, breaks = "hours")) %>%
  count() %>%
  print() %>%
  plot()
```

```
## # A tibble: 21 x 2
## # Groups:   cut(depart_time, breaks = "hours") [21]
##    `cut(depart_time, breaks = "hours")`     n
##                                  <fctr> <int>
##  1                  2017-04-11 05:00:00    15
##  2                  2017-04-11 06:00:00    18
##  3                  2017-04-11 07:00:00    12
##  4                  2017-04-11 08:00:00    18
##  5                  2017-04-11 09:00:00    15
##  6                  2017-04-11 10:00:00    13
##  7                  2017-04-11 11:00:00    15
##  8                  2017-04-11 12:00:00    27
##  9                  2017-04-11 13:00:00    33
## 10                  2017-04-11 14:00:00    13
## # ... with 11 more rows
```
…
#Summary stats for trips
Not really paying attention to this so much until I do a better job of the data wrangling.

```r
one_day_trip %>%
  group_by(subwayline, origin_stationid, stationid) %>%
  summarise(median = median(duration),
            sd = sd(duration),
            n = n())
```

```
## # A tibble: 244 x 6
## # Groups:   subwayline, origin_stationid [?]
##    subwayline origin_stationid stationid         median            sd
##         <chr>            <int>     <int>         <time>        <time>
##  1         BD               33        34 354.85914 secs 83.80592 secs
##  2         BD               33        35 474.22690 secs 17.17776 secs
##  3         BD               33        36 545.10500 secs      NaN secs
##  4         BD               34        33 177.86526 secs 55.33429 secs
##  5         BD               34        35 132.37202 secs 35.20857 secs
##  6         BD               34        36 157.35344 secs      NaN secs
##  7         BD               35        33  97.11556 secs 56.95155 secs
##  8         BD               35        34 130.75806 secs 34.28464 secs
##  9         BD               35        36 120.16551 secs 23.30199 secs
## 10         BD               35        37 216.76733 secs 30.14767 secs
## # ... with 234 more rows, and 1 more variables: n <int>
```
